[
  {
    "name": "Michel Gratton",
    "jobTitle": "Développeur Front-End<br/>(Senior)",
    "description": "<p>Lorem ipsum dolor sit amet, ne quo erat dolores eloquentiam, iudico euismod apeirian et sed, ne zril eligendi placerat quo. No unum aperiam eleifend per. Te mea quodsi euismod verterem, sumo impetus an vis. Vis eu inani nullam accusam, ea quo atqui tacimates. Vix no fugit exerci inermis, prima utinam civibus in ius, blandit vivendum vel et.</p>",
    "avatar": "/assets/app/components/profiles/assets/avatar/michel-gratton.jpg",
    "specialities": [
      "Front-End",
      "Backend",
      "JavaScript",
      "jQuery"
    ],
    "clients": [
      "Cogeco (w.illi.am)",
      "Pages Jaunes (w.illi.am)",
      "nurun"
    ],
    "references": [
      {
        "icon": "icon-mail",
        "name": "michel.gratton@nadrox.com",
        "url": "mailto:michel.gratton@nadrox.com"
      },
      {
        "icon": "icon-linkedin",
        "name": "LinkedIn",
        "url": "https://ca.linkedin.com/in/michelgrattonnadrox"
      },
      {
        "icon": "icon-doc",
        "name": "Curriculum Vitae",
        "url": "/assets/app/components/profiles/assets/cv/michel.gratton.nadrox.pdf"
      },
      {
        "icon": "icon-bitbucket",
        "name": "Bitbucket (nadrox)",
        "url": "https://bitbucket.org/nadrox"
      }
    ]
  },
  {
    "name": "Alexandre Paquette",
    "jobTitle": "Développeur Fullstack",
    "description": "<p>Je suis une personne douvée et passionnée par le développement Web. J'aborde toutes les situation en mode solutions et un professionalisme reconnu.</p><p>N'hésitez pas à entrer en contact avec pour discuter de vos besoins!",
    "avatar": "/assets/app/components/profiles/assets/avatar/alexandre-paquette.jpg",
    "specialities": [
      "Front-End",
      "Backend",
      "AngularJS",
      "NodeJS",
      "JavaScript"
    ],
    "clients": [
      "Air Canada (Brainhunter)",
      "Vidéotron (Cofomo, Nurun)",
      "Totami",
      "Tenrox (Nurun)"
    ],
    "references": [
      {
        "icon": "icon-mail",
        "name": "alexandre.paquette@nadrox.com",
        "url": "mailto:alexandre.paquette@nadrox.com"
      },
      {
        "icon": "icon-linkedin",
        "name": "LinkedIn",
        "url": "https://ca.linkedin.com/in/alexandrepaquette"
      },
      {
        "icon": "icon-doc",
        "name": "Curriculum Vitae",
        "url": "/assets/app/components/profiles/assets/cv/alexandre.paquette.nadrox.pdf"
      },
      {
        "icon": "icon-github-circled",
        "name": "Github",
        "url": "https://github.com/paquettea"
      },
      {
        "icon": "icon-bitbucket",
        "name": "Bitbucket (nadrox)",
        "url": "https://bitbucket.org/nadrox"
      },
      {
        "icon": "icon-calendar-empty",
        "name": "Disponibilités",
        "url": "https://calendar.google.com/calendar/embed?src=nadrox.com_rsek79lmgna56q7h99pp5dcgk0%40group.calendar.google.com&ctz=America/Toronto"
      }
    ]
  },
  {
    "name": "Stéphane Savoie",
    "jobTitle": "Développeur Front-End",
    "description": "<p>Lorem ipsum dolor sit amet, ne quo erat dolores eloquentiam, iudico euismod apeirian et sed, ne zril eligendi placerat quo. No unum aperiam eleifend per. Te mea quodsi euismod verterem, sumo impetus an vis. Vis eu inani nullam accusam, ea quo atqui tacimates. Vix no fugit exerci inermis, prima utinam civibus in ius, blandit vivendum vel et.</p>",
    "avatar": "/assets/app/components/profiles/assets/avatar/stephane-savoie.jpg",
    "specialities": [
      "Front-End",
      "JavaScript",
      "jQuery"
    ],
    "clients": [
      "Société des Casinos (Nexio)",
      "Loto-Québec (w.illi.am)",
      "Cogeco (w.illi.am)",
      "Pages Jaunes (w.illi.am)",
      "nurun"
    ],
    "references": [
      {
        "icon": "icon-mail",
        "name": "stephane.savoie@nadrox.com",
        "url": "mailto:stephane.savoie@nadrox.com"
      },
      {
        "icon": "icon-linkedin",
        "name": "LinkedIn",
        "url": "https://ca.linkedin.com/in/stephanesavoie/fr"
      },
      {
        "icon": "icon-doc",
        "name": "Curriculum Vitae",
        "url": "/assets/app/components/profiles/assets/cv/stephane.savoie.nadrox.pdf"
      },
      {
        "icon": "icon-bitbucket",
        "name": "Bitbucket (nadrox)",
        "url": "https://bitbucket.org/nadrox"
      }
    ]
  }
]
